<svg xmlns="http://www.w3.org/2000/svg" viewBox="0 0 80 80">
  <defs>
    <style>
      .cls-1 {
        fill: #909399;
      }

      .cls-2 {
        fill: none;
      }
    </style>
  </defs>
  <g id="JAVA" transform="translate(18.341 15)">
    <g id="Group_464" data-name="Group 464" transform="translate(6.993 5)">
      <path id="Path_191" data-name="Path 191" class="cls-1" d="M1280.136,91.5a3.613,3.613,0,0,1-.852,1.3,6.935,6.935,0,0,1-3.487,1.622c-1.581.284-3.2.446-4.785.649-.771.081-1.581.122-2.392.2h-4.014a6.05,6.05,0,0,0-.852-.081,51.771,51.771,0,0,1-6.568-.77c-.162-.041-.365-.081-.486-.122h1.784c2.757.041,5.474.122,8.231.081,2.23-.041,4.46-.162,6.65-.365a15.383,15.383,0,0,0,5.474-1.7C1279.284,92.068,1279.69,91.784,1280.136,91.5Z" transform="translate(-1250.277 -54.441)"/>
      <path id="Path_192" data-name="Path 192" class="cls-1" d="M1274.624,5.614a6.385,6.385,0,0,1-1.5,2.189c-1.054,1.014-2.189,1.946-3.284,2.919-.77.689-1.541,1.379-2.23,2.108a2.473,2.473,0,0,0-.649,2.108,20.305,20.305,0,0,0,1.865,6.325c.081.162.122.324.2.487-.041.041-.122.081-.162.122-.689-.77-1.459-1.46-2.108-2.271a17.571,17.571,0,0,1-1.662-2.473,4.645,4.645,0,0,1-.487-3.73,6.746,6.746,0,0,1,1.581-2.636,20.914,20.914,0,0,1,3.527-3c.851-.649,1.744-1.3,2.554-1.987a4.976,4.976,0,0,0,1.3-2.108,7.986,7.986,0,0,0,.405-3.528c.041,0,.041,0,.081-.041.162.365.365.689.487,1.054A5.675,5.675,0,0,1,1274.624,5.614Z" transform="translate(-1254.862 -0.1)"/>
      <path id="Path_193" data-name="Path 193" class="cls-1" d="M1268.691,86.922a6.375,6.375,0,0,1-1.257.73,25.714,25.714,0,0,1-5.8,1.379,66.219,66.219,0,0,1-11.677.446c-1.906-.081-3.811-.284-5.717-.527a5.948,5.948,0,0,1-2.8-.973,2.546,2.546,0,0,1-.446-.487.853.853,0,0,1,.406-1.257,4.783,4.783,0,0,1,1.338-.487c1.095-.2,2.23-.324,3.325-.446a.162.162,0,0,1,.162.081c-.284.081-.568.122-.852.2-.568.2-1.135.365-1.662.608-.2.081-.365.324-.527.487.2.162.324.405.568.446a16.313,16.313,0,0,0,2.433.568,52.509,52.509,0,0,0,9.772.568,57.692,57.692,0,0,0,8.393-.811c1.216-.243,2.392-.568,3.568-.892.568-.162.689-.365.73-.933A.777.777,0,0,1,1268.691,86.922Z" transform="translate(-1240.859 -50.755)"/>
      <path id="Path_194" data-name="Path 194" class="cls-1" d="M1268.667,56.781c-.405.2-.811.487-1.216.649a18.9,18.9,0,0,1-6.123,1.541c-1.46.122-2.96.2-4.46.2a21.746,21.746,0,0,1-6.042-.649,3.262,3.262,0,0,1-1.743-.973.769.769,0,0,1,.122-1.176,4.026,4.026,0,0,1,1.095-.568,18.562,18.562,0,0,1,4.744-.608c.041,0,.041,0,.162.041-.527.162-1.014.243-1.46.405a15.787,15.787,0,0,0-1.7.77.852.852,0,0,0-.284.446c0,.081.243.243.365.284a11.874,11.874,0,0,0,1.662.284,65.529,65.529,0,0,0,9.772-.041,33.16,33.16,0,0,0,4.906-.649h.162C1268.667,56.741,1268.667,56.741,1268.667,56.781Z" transform="translate(-1245.62 -32.859)"/>
      <path id="Path_195" data-name="Path 195" class="cls-1" d="M1280.531,26.347a2.593,2.593,0,0,0,.527,2.676c.324.487.608.973.892,1.5a3.229,3.229,0,0,1-.162,3.406,6.985,6.985,0,0,1-1.987,2.108c.162-.446.284-.77.405-1.135a2.76,2.76,0,0,0-.608-2.96,6.312,6.312,0,0,1-1.7-4.136,3.343,3.343,0,0,1,.892-2.352,13.132,13.132,0,0,1,3.933-2.879c.77-.405,1.581-.77,2.392-1.135a.6.6,0,0,1,.284-.041c-.365.284-.73.568-1.095.892-1.014.933-2.027,1.865-3,2.838A4.145,4.145,0,0,0,1280.531,26.347Z" transform="translate(-1262.877 -12.764)"/>
      <path id="Path_196" data-name="Path 196" class="cls-1" d="M1273.123,79.887c-.487.162-.892.365-1.338.487a21.114,21.114,0,0,1-10.542.324,3.566,3.566,0,0,1-1.744-.77.922.922,0,0,1,.162-1.622,6.85,6.85,0,0,1,1.379-.405c-.2.649-.122.77.446.892a18.3,18.3,0,0,0,6.812.284c.811-.122,1.662-.284,2.473-.405.081,0,.2-.041.243,0C1271.663,78.995,1272.352,79.441,1273.123,79.887Z" transform="translate(-1251.698 -46.355)"/>
      <path id="Path_197" data-name="Path 197" class="cls-1" d="M1271.946,69.084c-.365.081-.689.2-1.014.243a51.628,51.628,0,0,1-7.461,1.054,17.479,17.479,0,0,1-5.8-.649,4.13,4.13,0,0,1-1.257-.649.6.6,0,0,1,.041-1.095,8.074,8.074,0,0,1,1.46-.689c0,.122.04.122,0,.162-.446.527-.406.851.284,1.014a19.933,19.933,0,0,0,2.717.405A34.311,34.311,0,0,0,1270,68.07a.68.68,0,0,1,.487.122,7.168,7.168,0,0,1,.689.487A2.032,2.032,0,0,1,1271.946,69.084Z" transform="translate(-1249.913 -40.053)"/>
      <path id="Path_198" data-name="Path 198" class="cls-1" d="M1305.979,58.323a3.964,3.964,0,0,1-1.257,1.46,11.458,11.458,0,0,1-4.622,1.987c.649-.527,1.338-1.014,1.946-1.581a7.472,7.472,0,0,0,2.068-2.554,1.839,1.839,0,0,0-.892-2.433,5.448,5.448,0,0,0-2.271-.649.954.954,0,0,1-.324-.081,5.184,5.184,0,0,1,3.568-.568,2.549,2.549,0,0,1,1.7,1.581A3.054,3.054,0,0,1,1305.979,58.323Z" transform="translate(-1276.08 -32.009)"/>
    </g>
    <rect id="Rectangle_1118" data-name="Rectangle 1118" class="cls-2" width="80" height="80" transform="translate(-18.341 -15)"/>
  </g>
</svg>
