<svg xmlns="http://www.w3.org/2000/svg" viewBox="0 0 20 20">
  <defs>
    <style>
      .cls-1 {
        fill: #17b184;
      }
    </style>
  </defs>
  <g id="Group_492" data-name="Group 492" transform="translate(-326 -1394)">
    <rect id="Rectangle_1157" data-name="Rectangle 1157" class="cls-1" width="2" height="20" transform="translate(335 1394)"/>
    <rect id="Rectangle_1158" data-name="Rectangle 1158" class="cls-1" width="2" height="20" transform="translate(346 1403) rotate(90)"/>
  </g>
</svg>
