<svg xmlns="http://www.w3.org/2000/svg" viewBox="0 0 18.908 26.887">
  <defs>
    <style>
      .cls-1 {
        fill: none;
        stroke: #17b184;
        stroke-miterlimit: 10;
        stroke-width: 2px;
      }
    </style>
  </defs>
  <g id="Group_24" data-name="Group 24" transform="translate(-453 -262.918)">
    <path id="Path_38" data-name="Path 38" class="cls-1" d="M468.432,276.123a8.454,8.454,0,1,1-11.956,0" transform="translate(0 -1.75)"/>
    <path id="Path_39" data-name="Path 39" class="cls-1" d="M459.487,278.95a5.079,5.079,0,0,0,0,7.175" transform="translate(-0.619 -2.187)"/>
    <path id="Path_40" data-name="Path 40" class="cls-1" d="M459,271.568l4.227-6.763,4.227,6.764" transform="translate(-0.773)"/>
  </g>
</svg>
