<svg xmlns="http://www.w3.org/2000/svg" viewBox="0 0 32 26">
  <defs>
    <style>
      .cls-1 {
        fill: none;
        stroke: #17b184;
        stroke-miterlimit: 10;
        stroke-width: 2px;
      }
    </style>
  </defs>
  <g id="Group_64" data-name="Group 64" transform="translate(-203 -431)">
    <path id="Path_47" data-name="Path 47" class="cls-1" d="M204,441v15h30V441"/>
    <rect id="Rectangle_14" data-name="Rectangle 14" class="cls-1" width="30" height="6" transform="translate(204 432)"/>
    <line id="Line_28" data-name="Line 28" class="cls-1" x2="2" transform="translate(207 435)"/>
    <line id="Line_29" data-name="Line 29" class="cls-1" x2="2" transform="translate(210 435)"/>
    <line id="Line_30" data-name="Line 30" class="cls-1" x2="2" transform="translate(213 435)"/>
    <g id="Group_62" data-name="Group 62">
      <rect id="Rectangle_15" data-name="Rectangle 15" class="cls-1" width="6" height="10" transform="translate(208 442)"/>
    </g>
    <g id="Group_63" data-name="Group 63">
      <rect id="Rectangle_16" data-name="Rectangle 16" class="cls-1" width="12" height="10" transform="translate(218 442)"/>
    </g>
  </g>
</svg>
