<svg xmlns="http://www.w3.org/2000/svg" viewBox="0 0 13.333 13.333">
  <defs>
    <style>
      .cls-1 {
        fill: #fff;
        stroke: #707070;
      }

      .cls-2 {
        stroke: none;
      }

      .cls-3 {
        fill: none;
      }
    </style>
  </defs>
  <g id="Group_476" data-name="Group 476" transform="translate(0)">
    <g id="Rectangle_1157" data-name="Rectangle 1157" class="cls-1" transform="translate(6)">
      <rect class="cls-2" width="1.333" height="13.333"/>
      <rect class="cls-3" x="0.5" y="0.5" width="0.333" height="12.333"/>
    </g>
    <g id="Rectangle_1158" data-name="Rectangle 1158" class="cls-1" transform="translate(13.333 6) rotate(90)">
      <rect class="cls-2" width="1.333" height="13.333"/>
      <rect class="cls-3" x="0.5" y="0.5" width="0.333" height="12.333"/>
    </g>
  </g>
</svg>
