<svg xmlns="http://www.w3.org/2000/svg" viewBox="0 0 80 80">
  <defs>
    <style>
      .cls-1 {
        fill: #909399;
      }

      .cls-2 {
        fill: none;
      }
    </style>
  </defs>
  <g id="Partner_Inegra_Plus" transform="translate(22.126 16.888)">
    <g id="Group_470" data-name="Group 470" transform="translate(-12.271 4.376)">
      <path id="Path_15" data-name="Path 15" class="cls-1" d="M81.7,21.3h5.041a12.1,12.1,0,0,1,2.1,9.956c-1.428,5.8-4.747,8.066-4.747,8.066l-3.7-2.647s4.327-3.655,4.075-8.276A11.276,11.276,0,0,0,81.7,21.3Z" transform="translate(-46.625 -12.352)"/>
      <path id="Path_16" data-name="Path 16" class="cls-1" d="M97.4,21.3h5.839s2.9,4.495,1.3,11.426a23.8,23.8,0,0,1-6.553,11.342L94,40.792a12.807,12.807,0,0,0,5.5-9.7C99.923,24.493,97.4,21.3,97.4,21.3Z" transform="translate(-54.512 -12.352)"/>
      <path id="Path_17" data-name="Path 17" class="cls-1" d="M113.191,21.3h8.024s2.563,8.822,0,16.3-9.074,12.224-9.074,12.224L107.1,45.455a19.127,19.127,0,0,0,7.267-12.1C115.922,25,113.191,21.3,113.191,21.3Z" transform="translate(-62.109 -12.352)"/>
      <path id="Path_18" data-name="Path 18" class="cls-1" d="M7.646.7h7.688L7.646,37.289H0Z" transform="translate(0 -0.406)"/>
      <g id="Group_7" data-name="Group 7" transform="translate(15.081)">
        <path id="Path_19" data-name="Path 19" class="cls-1" d="M41.907,7.862h-1.47L38.421,2.778,37.37,7.862H35.9L37.5.3h1.47l2.016,5.083L42.033.3H43.5Z" transform="translate(-35.9 -0.174)"/>
        <path id="Path_20" data-name="Path 20" class="cls-1" d="M58.436,7.862H56.882l1.3-6.3H56L56.252.3h5.965l-.252,1.26H59.781Z" transform="translate(-47.556 -0.174)"/>
        <path id="Path_21" data-name="Path 21" class="cls-1" d="M69.4,7.862,71,.3h5.629l-.252,1.26H72.3l-.378,1.722h3.907l-.252,1.26H71.668L71.206,6.6h4.411l-.252,1.26Z" transform="translate(-55.327 -0.174)"/>
        <path id="Path_22" data-name="Path 22" class="cls-1" d="M91.155,3.655h3.4l-.672,3.235a8.05,8.05,0,0,1-1.47.672,5.131,5.131,0,0,1-1.764.252,3.258,3.258,0,0,1-2.142-.63A3.17,3.17,0,0,1,87.5,4.663a5.074,5.074,0,0,1,.42-2.1A4.223,4.223,0,0,1,89.432.672,3.51,3.51,0,0,1,91.659,0a3.213,3.213,0,0,1,2.1.63,2.919,2.919,0,0,1,1.05,1.764l-1.47.168a1.779,1.779,0,0,0-.63-.966,1.654,1.654,0,0,0-1.05-.336,2.644,2.644,0,0,0-1.386.378,2.38,2.38,0,0,0-.966,1.218,4.324,4.324,0,0,0-.336,1.806,2.073,2.073,0,0,0,.42,1.428,1.562,1.562,0,0,0,1.26.462,4.143,4.143,0,0,0,1.008-.126,4.729,4.729,0,0,0,.924-.336l.252-1.134H90.9Z" transform="translate(-65.824 0)"/>
        <path id="Path_23" data-name="Path 23" class="cls-1" d="M107.354,7.862H105.8L107.4.3h3.361A3.878,3.878,0,0,1,112.1.468a1.545,1.545,0,0,1,.8.672,2.081,2.081,0,0,1,.294,1.134,2.336,2.336,0,0,1-.588,1.6,2.889,2.889,0,0,1-1.764.8,2.462,2.462,0,0,1,.546.714,18.51,18.51,0,0,1,1.176,2.52h-1.68a17.149,17.149,0,0,0-.8-2.016,2.032,2.032,0,0,0-.672-.966,1.678,1.678,0,0,0-.756-.168h-.63Zm.924-4.243h.84a5.032,5.032,0,0,0,1.68-.168,1.047,1.047,0,0,0,.63-.462,1.03,1.03,0,0,0,.252-.672.741.741,0,0,0-.336-.63,1.906,1.906,0,0,0-.882-.126h-1.722Z" transform="translate(-76.436 -0.174)"/>
        <path id="Path_24" data-name="Path 24" class="cls-1" d="M128.2,6.281H125.22l-.924,1.68h-1.6L126.985.4h1.722l1.218,7.562h-1.47Zm-.21-1.26-.42-3.067-1.848,3.067Z" transform="translate(-86.237 -0.232)"/>
      </g>
      <g id="Group_9" data-name="Group 9" transform="translate(16.635 29.154)">
        <g id="Group_8" data-name="Group 8">
          <path id="Path_25" data-name="Path 25" class="cls-1" d="M39.6,77.362,41.2,69.8h1.554l-1.3,6.3h3.865l-.252,1.26Z" transform="translate(-39.6 -69.632)"/>
          <path id="Path_26" data-name="Path 26" class="cls-1" d="M57.308,69.8h1.554l-.84,4.117-.21,1.008v.252a1.052,1.052,0,0,0,.336.756,1.333,1.333,0,0,0,.966.294,2,2,0,0,0,.924-.21,1.435,1.435,0,0,0,.588-.63,6.716,6.716,0,0,0,.42-1.428l.882-4.159h1.554L62.6,73.959a7.15,7.15,0,0,1-.63,2.016,2.826,2.826,0,0,1-1.092,1.134,3.543,3.543,0,0,1-1.848.42,2.9,2.9,0,0,1-2.016-.63,2.218,2.218,0,0,1-.714-1.68,1.883,1.883,0,0,1,.042-.462c0-.126.084-.42.168-.924Z" transform="translate(-49.285 -69.632)"/>
          <path id="Path_27" data-name="Path 27" class="cls-1" d="M73.688,74.693l1.47-.084a1.4,1.4,0,0,0,.252.966,1.6,1.6,0,0,0,1.26.42,1.547,1.547,0,0,0,1.092-.294.877.877,0,0,0,.336-.672.734.734,0,0,0-.294-.588,4.873,4.873,0,0,0-1.092-.546,12.985,12.985,0,0,1-1.3-.63,1.622,1.622,0,0,1-.63-.672,1.74,1.74,0,0,1-.252-.966,2.066,2.066,0,0,1,.672-1.6,2.9,2.9,0,0,1,2.016-.63,3.017,3.017,0,0,1,2.058.63,2.223,2.223,0,0,1,.8,1.68l-1.512.084a1.31,1.31,0,0,0-.378-.84,1.38,1.38,0,0,0-1.008-.294,1.661,1.661,0,0,0-.924.21.8.8,0,0,0-.294.588.739.739,0,0,0,.252.546,6.267,6.267,0,0,0,1.134.588,6.021,6.021,0,0,1,1.68.924,1.869,1.869,0,0,1,.546,1.344,2.167,2.167,0,0,1-.8,1.722,3.292,3.292,0,0,1-2.226.714,4.13,4.13,0,0,1-1.68-.336,1.978,1.978,0,0,1-1.008-.924A4.535,4.535,0,0,1,73.688,74.693Z" transform="translate(-59.364 -69.4)"/>
        </g>
      </g>
      <g id="Group_11" data-name="Group 11" transform="translate(9.284 8.78)">
        <g id="Group_10" data-name="Group 10">
          <path id="Path_28" data-name="Path 28" class="cls-1" d="M27.9,49.13H22.1L28.023,20.9H39.491a13.468,13.468,0,0,1,4.831.714,5.585,5.585,0,0,1,2.815,2.394A7.159,7.159,0,0,1,48.187,28a10.975,10.975,0,0,1-.84,4.159,9.687,9.687,0,0,1-2.016,3.235,8.983,8.983,0,0,1-2.6,1.848,13.825,13.825,0,0,1-3.739.924,43.408,43.408,0,0,1-5.125.21h-3.7Zm3.235-15.459h1.806a20.886,20.886,0,0,0,6.133-.588,5.128,5.128,0,0,0,2.436-1.848,4.73,4.73,0,0,0,.882-2.773,3.04,3.04,0,0,0-.462-1.68,2.684,2.684,0,0,0-1.26-.966,13.162,13.162,0,0,0-3.655-.294H32.854Z" transform="translate(-22.1 -20.9)"/>
        </g>
      </g>
    </g>
    <rect id="Rectangle_1128" data-name="Rectangle 1128" class="cls-2" width="80" height="80" transform="translate(-22.126 -16.888)"/>
  </g>
</svg>
